<svg xmlns="http://www.w3.org/2000/svg" width="51.227" height="53.227" viewBox="0 0 51.227 53.227">
  <g id="Group_764" data-name="Group 764" transform="translate(-4902.854 884.146)">
    <g id="Union_4" data-name="Union 4" transform="translate(4904.854 -880.146)" fill="#002764" stroke-linecap="round" stroke-linejoin="round">
      <path d="M 23.61330032348633 48.22660064697266 C 21.45927047729492 48.22660064697266 19.31577110290527 47.94570159912109 17.24237060546875 47.3917121887207 C 13.21587181091309 46.31553649902344 9.512889862060547 44.21634292602539 6.507204532623291 41.31010055541992 L 6.50229024887085 41.31010055541992 L 6.208490371704102 41.0172119140625 C 3.150240421295166 37.95896148681641 0.9459903240203857 34.14385986328125 -0.1659696698188782 29.98435974121094 C -0.7193996906280518 27.91306114196777 -0.9999997019767761 25.76956939697266 -0.9999997019767761 23.61330032348633 C -0.9999997019767761 21.45703125 -0.7193996906280518 19.31353950500488 -0.1660096794366837 17.24237060546875 C 0.9459903240203857 13.08274078369141 3.150240421295166 9.267640113830566 6.208490371704102 6.209390163421631 L 6.50139045715332 5.916500091552734 L 6.507204532623291 5.916500091552734 C 9.272146224975586 3.243036985397339 12.62706851959229 1.252543210983276 16.28112030029297 0.1131038144230843 L 16.27555084228516 0.09232032299041748 L 17.24237060546875 -0.1660096794366837 C 19.31353950500488 -0.7193996906280518 21.45703125 -0.9999997019767761 23.61330032348633 -0.9999997019767761 C 25.76992988586426 -0.9999997019767761 27.91316032409668 -0.7193896770477295 29.98344993591309 -0.1659796833992004 L 30.72520065307617 0.03230032324790955 L 30.72520065307617 0.04582545533776283 C 34.59652328491211 1.213188290596008 38.1415901184082 3.333768367767334 41.0172119140625 6.209390163421631 C 44.07545852661133 9.267640113830566 46.27970886230469 13.08274078369141 47.39167022705078 17.24224090576172 C 47.94570159912109 19.31577110290527 48.22660064697266 21.45927047729492 48.22660064697266 23.61330032348633 C 48.22660064697266 25.43330192565918 48.02612686157227 27.24532890319824 47.6298828125 29.01350593566895 L 47.6497917175293 29.01884078979492 L 47.39167022705078 29.98435974121094 C 47.38271331787109 30.01787185668945 47.37367630004883 30.0513858795166 47.36457443237305 30.08485221862793 L 47.1333122253418 30.95000076293945 L 47.11366271972656 30.94473838806152 C 45.93304824829102 34.73056793212891 43.83858871459961 38.19583129882812 41.0172119140625 41.0172119140625 C 38.19461059570312 43.83981323242188 34.72743225097656 45.93484115600586 30.93943214416504 47.11509704589844 L 30.94458961486816 47.13486862182617 L 29.98423004150391 47.3917121887207 C 27.91082954406738 47.94570159912109 25.76733016967773 48.22660064697266 23.61330032348633 48.22660064697266 Z M 20.3164234161377 35.64201736450195 L 20.38484954833984 35.66030120849609 C 21.43379974365234 35.94057846069336 22.52000999450684 36.08269882202148 23.61330032348633 36.08269882202148 C 24.70573997497559 36.08269882202148 25.79201126098633 35.94055938720703 26.84194946289062 35.66024017333984 C 28.94828987121582 35.09685897827148 30.88076019287109 33.98012924194336 32.42998886108398 32.43088912963867 C 33.97957992553711 30.88216018676758 35.09654998779297 28.94944953918457 35.66035842895508 26.84151077270508 C 35.94055938720703 25.79201126098633 36.08269882202148 24.70573997497559 36.08269882202148 23.61330032348633 C 36.08269882202148 22.52086067199707 35.94055938720703 21.43458938598633 35.66024017333984 20.38465118408203 C 35.09664916992188 18.27750015258789 33.97991180419922 16.34473037719727 32.43088912963867 14.79571056365967 C 30.87967109680176 13.24532985687256 28.94693946838379 12.12856006622314 26.84185981750488 11.56634044647217 C 25.78977966308594 11.28544044494629 24.70350074768066 11.14300060272217 23.61330032348633 11.14300060272217 C 22.52225112915039 11.14300060272217 21.4360408782959 11.28542041778564 20.38484954833984 11.56630039215088 L 20.31147193908691 11.58590793609619 C 18.23380661010742 12.15464496612549 16.32797431945801 13.26343631744385 14.79571056365967 14.79571056365967 C 13.24557018280029 16.34584045410156 12.12887001037598 18.27849960327148 11.56634044647217 20.38474082946777 C 11.28536987304688 21.43388938903809 11.14300060272217 22.51992034912109 11.14300060272217 23.61330032348633 C 11.14300060272217 24.70668029785156 11.28536987304688 25.79271125793457 11.56616020202637 26.84122085571289 L 11.58795356750488 26.92259407043457 C 12.15728950500488 28.9974193572998 13.26523399353027 30.90042495727539 14.79571056365967 32.43088912963867 C 16.32800102233887 33.96319198608398 18.23565292358398 35.07252502441406 20.3164234161377 35.64201736450195 Z" stroke="none"/>
      <path d="M 23.61330032348633 47.22660064697266 C 25.7273998260498 47.22660064697266 27.77580070495605 46.94670104980469 29.72610092163086 46.42560195922852 L 29.72603988647461 46.42536926269531 C 33.79014205932617 45.33901214599609 37.42218017578125 43.19802856445312 40.31010055541992 40.31010055541992 C 43.19729995727539 37.42290115356445 45.33930206298828 33.78960037231445 46.42560195922852 29.72610092163086 L 37.73609924316406 27.39780044555664 L 46.42560195922852 29.72520065307617 C 46.94670104980469 27.77580070495605 47.22660064697266 25.7273998260498 47.22660064697266 23.61330032348633 C 47.22660064697266 21.49920082092285 46.94670104980469 19.4507999420166 46.42560195922852 17.5004997253418 L 36.62639999389648 20.12669944763184 C 36.92340087890625 21.23909950256348 37.08269882202148 22.40730094909668 37.08269882202148 23.61330032348633 C 37.08269882202148 24.81929969787598 36.92340087890625 25.98750114440918 36.62639999389648 27.09990119934082 C 36.00630187988281 29.41830062866211 34.78499984741211 31.49100112915039 33.13710021972656 33.13800048828125 C 31.4901008605957 34.78499984741211 29.41830062866211 36.00630187988281 27.09990119934082 36.62639999389648 C 25.98750114440918 36.92340087890625 24.81929969787598 37.08269882202148 23.61330032348633 37.08269882202148 C 22.40730094909668 37.08269882202148 21.23820114135742 36.92340087890625 20.12669944763184 36.62639999389648 L 17.5004997253418 46.42560195922852 C 19.4507999420166 46.94670104980469 21.49920082092285 47.22660064697266 23.61330032348633 47.22660064697266 M 17.5004997253418 46.42560195922852 L 20.12580108642578 36.62639999389648 C 17.80830001831055 36.00630187988281 15.73560047149658 34.78499984741211 14.08860015869141 33.13800048828125 C 12.44160079956055 31.49100112915039 11.21940040588379 29.41830062866211 10.60020065307617 27.10079956054688 L 10.60020065307617 27.09990119934082 C 10.30230045318604 25.98750114440918 10.14300060272217 24.81929969787598 10.14300060272217 23.61330032348633 C 10.14300060272217 22.40730094909668 10.30230045318604 21.23909950256348 10.60020065307617 20.12669944763184 L 0.8001003265380859 17.5004997253418 C 0.27900031208992 19.4507999420166 3.234863186207804e-07 21.49920082092285 3.234863186207804e-07 23.61330032348633 C 3.234863186207804e-07 25.7273998260498 0.27900031208992 27.77580070495605 0.8001003265380859 29.72610092163086 C 1.88640034198761 33.78960037231445 4.028400421142578 37.42290115356445 6.915600299835205 40.31010055541992 L 6.916500091552734 40.31010055541992 C 9.80370044708252 43.19820022583008 13.43610000610352 45.33930206298828 17.5004997253418 46.42560195922852 M 36.62639999389648 20.12669944763184 L 46.42560195922852 17.5004997253418 C 45.33930206298828 13.4370002746582 43.19729995727539 9.80370044708252 40.31010055541992 6.916500091552734 C 37.42200088500977 4.028400421142578 33.78960037231445 1.887300372123718 29.72520065307617 0.8010002970695496 L 29.72520065307617 0.8001003265380859 C 27.77580070495605 0.27900031208992 25.7273998260498 3.234863186207804e-07 23.61330032348633 3.234863186207804e-07 C 21.49920082092285 3.234863186207804e-07 19.4507999420166 0.27900031208992 17.5004997253418 0.8001003265380859 L 20.12669944763184 10.60020065307617 C 21.23820114135742 10.30320072174072 22.40730094909668 10.14300060272217 23.61330032348633 10.14300060272217 C 24.81929969787598 10.14300060272217 25.98750114440918 10.30320072174072 27.09990119934082 10.60020065307617 C 29.41830062866211 11.21940040588379 31.4901008605957 12.44160079956055 33.13800048828125 14.08860015869141 C 34.78499984741211 15.73560047149658 36.00630187988281 17.80830001831055 36.62639999389648 20.12669944763184 M 10.60020065307617 20.12669944763184 C 11.21940040588379 17.80830001831055 12.44160079956055 15.73560047149658 14.08860015869141 14.08860015869141 C 15.73560047149658 12.44160079956055 17.80830001831055 11.21940040588379 20.12580108642578 10.60020065307617 L 17.5004997253418 0.8001003265380859 L 17.5004997253418 0.8010002970695496 C 13.43610000610352 1.887300372123718 9.80370044708252 4.028400421142578 6.916500091552734 6.916500091552734 L 6.915600299835205 6.916500091552734 C 4.028400421142578 9.80370044708252 1.88640034198761 13.4370002746582 0.8001003265380859 17.5004997253418 L 10.60020065307617 20.12669944763184 M 23.61330032348633 49.22660064697266 C 21.37215042114258 49.22660064697266 19.14180946350098 48.93429946899414 16.98423004150391 48.35781860351562 C 16.9841251373291 48.35779190063477 16.98414611816406 48.3577995300293 16.98408126831055 48.35778045654297 C 12.67062091827393 47.20491027832031 8.714032173156738 44.92413711547852 5.538747787475586 41.76070404052734 C 5.526145458221436 41.74874496459961 5.513706684112549 41.73662567138672 5.50139045715332 41.72431182861328 C 2.319040298461914 38.54196929931641 0.02524032257497311 34.57167053222656 -1.132049679756165 30.24262046813965 C -1.707999706268311 28.0870304107666 -1.999999642372131 25.856689453125 -1.999999642372131 23.61330032348633 C -1.999999642372131 21.36991119384766 -1.707999706268311 19.13957023620605 -1.132119655609131 16.98423004150391 C -1.131768584251404 16.9829158782959 -1.131428003311157 16.98164939880371 -1.13107430934906 16.9803352355957 C 0.02655598148703575 12.65282535552979 2.320011615753174 8.683659553527832 5.50139045715332 5.50229024887085 C 5.513729572296143 5.489951133728027 5.526180267333984 5.477821350097656 5.538804531097412 5.465839385986328 C 8.699497222900391 2.316944599151611 12.63457679748535 0.04258907958865166 16.92494010925293 -1.115295767784119 C 16.944580078125 -1.121196150779724 16.96435928344727 -1.126810312271118 16.98423004150391 -1.132119655609131 C 19.13957023620605 -1.707999706268311 21.36991119384766 -1.999999642372131 23.61330032348633 -1.999999642372131 C 25.85708999633789 -1.999999642372131 28.08720016479492 -1.707979679107666 30.24168968200684 -1.132059693336487 C 30.26161003112793 -1.126735091209412 30.28134727478027 -1.121133089065552 30.30098724365234 -1.115234613418579 C 34.60744857788086 0.04699181020259857 38.5564079284668 2.334378480911255 41.72431182861328 5.50229024887085 C 44.90568923950195 8.683659553527832 47.19915008544922 12.65284061431885 48.35677719116211 16.98035049438477 C 48.35712432861328 16.98163223266602 48.35747909545898 16.98294639587402 48.35781860351562 16.98423004150391 C 48.93429946899414 19.14180946350098 49.22660064697266 21.37215042114258 49.22660064697266 23.61330032348633 C 49.22660064697266 25.84445190429688 48.93698883056641 28.06426811218262 48.36576843261719 30.21166038513184 C 48.36318969726562 30.22195053100586 48.36050033569336 30.23233413696289 48.35774993896484 30.24262046813965 C 47.20045852661133 34.57167053222656 44.90666198730469 38.54196929931641 41.72431182861328 41.72431182861328 C 38.54983139038086 44.89881134033203 34.59103775024414 47.18912124633789 30.27415657043457 48.34905242919922 C 30.26360511779785 48.35205459594727 30.25300788879395 48.35497665405273 30.24237060546875 48.35781860351562 C 28.08479118347168 48.93429946899414 25.85445022583008 49.22660064697266 23.61330032348633 49.22660064697266 Z M 20.6159610748291 34.68716430664062 C 20.62494850158691 34.68943405151367 20.6340160369873 34.69179153442383 20.64299964904785 34.69419097900391 C 21.60778045654297 34.95199203491211 22.60713958740234 35.08269882202148 23.61330032348633 35.08269882202148 C 24.61868095397949 35.08269882202148 25.6181697845459 34.95195007324219 26.5839900970459 34.694091796875 C 28.52041053771973 34.17615127563477 30.29771041870117 33.14896011352539 31.72289085388184 31.72379112243652 C 33.14849853515625 30.2989501953125 34.17586898803711 28.52148056030273 34.69432067871094 26.5831298828125 C 34.95195007324219 25.6181697845459 35.08269882202148 24.61868095397949 35.08269882202148 23.61330032348633 C 35.08269882202148 22.60798263549805 34.95198822021484 21.60863304138184 34.69416046142578 20.64286804199219 C 34.17571640014648 18.70505332946777 33.14857482910156 16.92759704589844 31.72379112243652 15.50281047821045 C 30.29687118530273 14.07668018341064 28.51937103271484 13.04942035675049 26.58382987976074 12.532470703125 C 25.61593055725098 12.27405071258545 24.61645126342773 12.14300060272217 23.61330032348633 12.14300060272217 C 22.60937118530273 12.14300060272217 21.61001968383789 12.27402019500732 20.64299964904785 12.53241062164307 C 20.63382148742676 12.53486347198486 20.62460517883301 12.53725624084473 20.61542320251465 12.53957271575928 C 18.68953895568848 13.05916881561279 16.92221260070801 14.08341789245605 15.50281047821045 15.50281047821045 C 14.07682991027832 16.92880058288574 13.04970073699951 18.7061710357666 12.532470703125 20.64277076721191 C 12.53216075897217 20.64392852783203 12.53183937072754 20.64512825012207 12.53152751922607 20.64628601074219 C 12.2737340927124 21.60974502563477 12.14300060272217 22.60802841186523 12.14300060272217 23.61330032348633 C 12.14300060272217 24.61936950683594 12.2739200592041 25.61836051940918 12.53212070465088 26.5825309753418 C 12.53463554382324 26.59192276000977 12.53708171844482 26.60133171081543 12.53945827484131 26.61075592041016 C 13.05902481079102 28.53677558898926 14.08333110809326 30.30430030822754 15.50281047821045 31.72379112243652 C 16.92110061645508 33.14208221435547 18.68875312805176 34.16640472412109 20.6159610748291 34.68716430664062 Z" stroke="none" fill="#002764"/>
    </g>
    <g id="Group_763" data-name="Group 763" transform="translate(5908.96 -605.472)">
      <g id="Group_762" data-name="Group 762" transform="translate(-1003.305 -275.873)">
        <g id="Path_1484" data-name="Path 1484" transform="translate(993.784 266.352)" fill="#ed1b2d" stroke-linecap="round" stroke-linejoin="round">
          <path d="M -982.9844970703125 -245.7227630615234 L -984.2433471679688 -246.0599212646484 L -991.71875 -248.0630493164062 L -994.0428466796875 -248.6858062744141 L -995.0081176757812 -248.9444732666016 L -994.7500610351562 -249.9099273681641 C -993.6383666992188 -254.0696105957031 -991.43408203125 -257.8849182128906 -988.3756103515625 -260.9434204101562 L -988.082763671875 -261.236328125 L -988.07763671875 -261.236328125 C -985.1244506835938 -264.0910339355469 -981.49951171875 -266.1670532226562 -977.5569458007812 -267.2595520019531 L -976.5228881835938 -268.1212463378906 L -976.1180419921875 -266.6108093261719 L -973.4923095703125 -256.8112487792969 L -973.2333374023438 -255.8447418212891 L -974.2000122070312 -255.5863494873047 C -976.3065185546875 -255.0232849121094 -978.2391357421875 -253.9065093994141 -979.7888793945312 -252.3567810058594 C -981.30810546875 -250.8374481201172 -982.4112548828125 -248.9501953125 -982.9844970703125 -246.89208984375 L -982.9844970703125 -245.7227630615234 Z" stroke="none"/>
          <path d="M -983.9844970703125 -247.0258483886719 L -983.9844970703125 -247.0260009765625 C -983.3649291992188 -249.3442230224609 -982.1432495117188 -251.4165191650391 -980.4960327148438 -253.0638122558594 L -980.4959716796875 -253.0638885498047 C -978.8487548828125 -254.7110900878906 -976.7765502929688 -255.9327545166016 -974.4583129882812 -256.5524291992188 L -974.458251953125 -256.5524291992188 L -977.083984375 -266.3519897460938 L -977.0841064453125 -266.3518981933594 C -981.1480712890625 -265.2656555175781 -984.78076171875 -263.1240234375 -987.6683959960938 -260.236328125 L -987.6685180664062 -260.236328125 C -990.5562133789062 -257.3486022949219 -992.6978149414062 -253.7158203125 -993.7839965820312 -249.6518096923828 L -993.7839965820312 -249.6517333984375 L -983.9844970703125 -247.0258483886719 M -983.9846801757812 -245.0258483886719 C -984.1575927734375 -245.0258483886719 -984.3314819335938 -245.0482635498047 -984.5021362304688 -245.093994140625 L -994.3016357421875 -247.7198791503906 C -995.3681030273438 -248.0056610107422 -996.001220703125 -249.1015167236328 -995.7161865234375 -250.1681365966797 C -994.5591430664062 -254.4973602294922 -992.2653198242188 -258.4679260253906 -989.082763671875 -261.6505432128906 C -989.0781860351562 -261.6550598144531 -989.0736694335938 -261.6595764160156 -989.069091796875 -261.6640625 C -985.8907470703125 -264.8377380371094 -981.9281005859375 -267.1258850097656 -977.6080932617188 -268.2820434570312 C -977.2429809570312 -268.3811645507812 -976.8513793945312 -268.3763427734375 -976.4793701171875 -268.2583618164062 C -975.8291015625 -268.0520935058594 -975.3286743164062 -267.5286254882812 -975.1521606445312 -266.86962890625 L -972.5264282226562 -257.070068359375 C -972.3890380859375 -256.5574951171875 -972.4610595703125 -256.0113830566406 -972.7265014648438 -255.5519104003906 C -972.991943359375 -255.0924377441406 -973.4291381835938 -254.7572937011719 -973.9417724609375 -254.6202697753906 C -975.8787231445312 -254.1025238037109 -977.6561279296875 -253.0753021240234 -979.081787109375 -251.649658203125 C -980.505615234375 -250.2257385253906 -981.5320434570312 -248.4509887695312 -982.0503540039062 -246.5169982910156 C -982.1619873046875 -246.0927886962891 -982.4114379882812 -245.7120056152344 -982.7669677734375 -245.439208984375 C -983.1201171875 -245.1682586669922 -983.5491333007812 -245.0258483886719 -983.9846801757812 -245.0258483886719 Z" stroke="none" fill="#002764"/>
        </g>
        <g id="Path_1485" data-name="Path 1485" transform="translate(993.783 -46.453)" fill="#ed1b2d" stroke-linecap="round" stroke-linejoin="round">
          <path d="M -976.375732421875 93.30288696289062 L -977.3412475585938 93.04483032226562 C -981.5008544921875 91.93302917480469 -985.3160400390625 89.72876739501953 -988.3744506835938 86.67034912109375 L -988.4247436523438 86.62009429931641 L -988.4252319335938 86.61937713623047 C -991.457275390625 83.56965637207031 -993.6434936523438 79.77357482910156 -994.7490844726562 75.63719177246094 L -994.7830200195312 75.51029968261719 L -994.7830200195312 75.37895965576172 L -994.7830200195312 74.61164093017578 L -994.0418090820312 74.41288757324219 L -984.2423095703125 71.78707885742188 L -983.2056884765625 71.50930023193359 L -983.0084228515625 72.52828216552734 C -982.4425048828125 74.62186431884766 -981.3294067382812 76.5421142578125 -979.7879028320312 78.08351898193359 C -978.2380981445312 79.63333129882812 -976.3055419921875 80.75009918212891 -974.1990966796875 81.31308746337891 L -973.2323608398438 81.57145690917969 L -973.4913330078125 82.53799438476562 L -976.1170654296875 92.33754730224609 L -976.375732421875 93.30288696289062 Z" stroke="none"/>
          <path d="M -983.9835205078125 72.75299835205078 L -993.7830200195312 75.37895965576172 C -992.69677734375 79.44281005859375 -990.5551147460938 83.07552337646484 -987.66748046875 85.96308135986328 L -987.6673583984375 85.96324157714844 C -984.7797241210938 88.85086822509766 -981.14697265625 90.99250030517578 -977.0830078125 92.07874298095703 L -974.457275390625 82.27918243408203 C -976.7755126953125 81.65958404541016 -978.8477172851562 80.43792724609375 -980.4949951171875 78.79071807861328 L -980.4949951171875 78.79064178466797 C -982.1422119140625 77.14350891113281 -983.36376953125 75.07137298583984 -983.9834594726562 72.75331115722656 L -983.9835205078125 72.75299835205078 M -983.9835815429688 70.75299072265625 C -983.6119384765625 70.75299072265625 -983.2439575195312 70.85659790039062 -982.9230346679688 71.05732727050781 C -982.489501953125 71.32843780517578 -982.1777954101562 71.75424957275391 -982.0489501953125 72.24567413330078 C -981.5303955078125 74.17914581298828 -980.504150390625 75.953125 -979.080810546875 77.37638854980469 C -977.6550903320312 78.8021240234375 -975.8777465820312 79.82933044433594 -973.9408569335938 80.34700012207031 C -973.42822265625 80.48402404785156 -972.9910278320312 80.81916046142578 -972.7255249023438 81.27863311767578 C -972.4600830078125 81.73809814453125 -972.3880615234375 82.28424072265625 -972.5254516601562 82.79681396484375 L -975.1511840820312 92.59636688232422 C -975.4368896484375 93.66286468505859 -976.5330200195312 94.29596710205078 -977.5994262695312 94.01091003417969 C -981.9285888671875 92.85379791259766 -985.8990478515625 90.55998229980469 -989.08154296875 87.37744903564453 C -989.0841064453125 87.3748779296875 -989.086669921875 87.37230682373047 -989.0892333984375 87.36972808837891 C -992.2678833007812 84.18854522705078 -994.5589599609375 80.22103881835938 -995.7152099609375 75.89542388916016 C -995.7601928710938 75.72695922851562 -995.7830200195312 75.55332946777344 -995.7830200195312 75.37895965576172 C -995.7830200195312 74.47374725341797 -995.175048828125 73.68125152587891 -994.3006591796875 73.44696044921875 L -984.5011596679688 70.82115173339844 C -984.3307495117188 70.77549743652344 -984.1567993164062 70.75299072265625 -983.9835815429688 70.75299072265625 Z" stroke="none" fill="#002764"/>
        </g>
        <g id="Path_1486" data-name="Path 1486" transform="translate(680.979 266.352)" fill="#ed1b2d" stroke-linecap="round" stroke-linejoin="round">
          <path d="M -645.8614501953125 -245.8010864257812 L -646.1197509765625 -246.767822265625 C -646.6827392578125 -248.8743286132812 -647.7994995117188 -250.8069305419922 -649.3492431640625 -252.3567047119141 C -650.8990478515625 -253.9064788818359 -652.8316650390625 -255.0232696533203 -654.9381713867188 -255.5863494873047 L -655.90478515625 -255.8447265625 L -655.6458740234375 -256.8112182617188 L -653.0203247070312 -266.6107788085938 L -652.7031860351562 -267.79443359375 L -651.6968994140625 -267.2912902832031 C -647.5757446289062 -266.171142578125 -643.7968139648438 -263.9776611328125 -640.7625732421875 -260.9434204101562 C -637.7041625976562 -257.8849182128906 -635.4999389648438 -254.0697479248047 -634.38818359375 -249.9103546142578 L -634.3783569335938 -249.8737030029297 L -634.3713989257812 -249.8364105224609 L -634.20068359375 -248.9259490966797 L -635.0953979492188 -248.6858825683594 L -644.8948974609375 -246.0600738525391 L -645.8614501953125 -245.8010864257812 Z" stroke="none"/>
          <path d="M -645.1536865234375 -247.0260009765625 L -635.3541870117188 -249.6518096923828 L -635.354248046875 -249.6521301269531 C -636.4404907226562 -253.7159729003906 -638.5821533203125 -257.3486938476562 -641.4696655273438 -260.236328125 C -644.357421875 -263.1240234375 -647.9901733398438 -265.2656555175781 -652.05419921875 -266.3518981933594 L -652.0543823242188 -266.3519897460938 L -654.6799926757812 -256.5524291992188 L -654.679931640625 -256.5524291992188 C -652.3616943359375 -255.9327545166016 -650.2894287109375 -254.7110900878906 -648.6421508789062 -253.0638122558594 C -646.9949340820312 -251.4165954589844 -645.7732543945312 -249.3442993164062 -645.1536865234375 -247.0260925292969 L -645.1536865234375 -247.0260009765625 M -645.1536254882812 -245.0260009765625 C -645.501953125 -245.0260009765625 -645.847412109375 -245.1169891357422 -646.1542358398438 -245.2942810058594 C -646.6137084960938 -245.5597534179688 -646.9488525390625 -245.9969635009766 -647.0858764648438 -246.5096282958984 C -647.603515625 -248.4465637207031 -648.6306762695312 -250.2239379882812 -650.0563354492188 -251.6496124267578 C -651.4820556640625 -253.0752716064453 -653.2594604492188 -254.1025085449219 -655.1964111328125 -254.6202697753906 C -655.7090454101562 -254.7572784423828 -656.146240234375 -255.0924224853516 -656.4116821289062 -255.5518798828125 C -656.6771240234375 -256.0113525390625 -656.7491455078125 -256.5574645996094 -656.61181640625 -257.0700378417969 L -653.9862670898438 -266.8695983886719 C -653.8307495117188 -267.4498596191406 -653.4226684570312 -267.9295349121094 -652.8748168945312 -268.1759643554688 C -652.4461669921875 -268.3687744140625 -651.9676513671875 -268.4029235839844 -651.5220336914062 -268.2798461914062 C -647.1990356445312 -267.1213989257812 -643.2342529296875 -264.8292541503906 -640.0554809570312 -261.6505432128906 C -636.8729858398438 -258.4679260253906 -634.5791625976562 -254.4975280761719 -633.4220581054688 -250.1685791015625 C -633.4089965820312 -250.1197204589844 -633.3978271484375 -250.0704040527344 -633.3884887695312 -250.0207061767578 C -633.1958618164062 -248.9932861328125 -633.8268432617188 -247.9905090332031 -634.8365478515625 -247.7199554443359 L -644.6360473632812 -245.0941619873047 C -644.8063354492188 -245.0485229492188 -644.9803466796875 -245.0260009765625 -645.1536254882812 -245.0260009765625 Z" stroke="none" fill="#002764"/>
        </g>
        <g id="Path_1487" data-name="Path 1487" transform="translate(680.979 -46.454)" fill="#ed1b2d" stroke-linecap="round" stroke-linejoin="round">
          <path d="M -652.7615356445312 93.30381011962891 L -653.0202026367188 92.33847045898438 L -655.6459350585938 82.53890991210938 L -655.9049072265625 81.57238006591797 L -654.9381713867188 81.31401062011719 C -652.831787109375 80.75101470947266 -650.899169921875 79.63426971435547 -649.349365234375 78.08451843261719 C -647.7996826171875 76.53485107421875 -646.6829223632812 74.60227966308594 -646.1198120117188 72.49575042724609 L -645.8614501953125 71.52909851074219 L -644.8949584960938 71.78807067871094 L -643.7852783203125 72.08541107177734 L -635.0953979492188 74.41357421875 L -634.1897583007812 74.65621185302734 L -634.3735961914062 75.57562255859375 L -634.3798828125 75.60690307617188 L -634.38818359375 75.63802337646484 C -635.4999389648438 79.79750061035156 -637.7042236328125 83.61273956298828 -640.7627563476562 86.67127227783203 C -643.8212280273438 89.72969818115234 -647.636474609375 91.9339599609375 -651.7960205078125 93.04575347900391 L -652.7615356445312 93.30381011962891 Z" stroke="none"/>
          <path d="M -645.1537475585938 72.75400543212891 C -645.7734375 75.07221984863281 -646.9950561523438 77.14443206787109 -648.6422729492188 78.79164123535156 C -650.28955078125 80.43885040283203 -652.36181640625 81.66051483154297 -654.6799926757812 82.28010559082031 L -652.0542602539062 92.07965850830078 C -647.9902954101562 90.99342346191406 -644.3575439453125 88.85179138183594 -641.4699096679688 85.96414947509766 L -641.4698486328125 85.96414947509766 C -638.5822143554688 83.07652282714844 -636.4404907226562 79.44380950927734 -635.354248046875 75.37979888916016 L -635.3541870117188 75.37950134277344 L -645.1537475585938 72.75400543212891 M -645.1536865234375 70.75399780273438 C -644.9804077148438 70.75399780273438 -644.806396484375 70.77651977539062 -644.6361083984375 70.82215118408203 L -634.8366088867188 73.4476318359375 C -633.8179321289062 73.72055816650391 -633.1862182617188 74.73759460449219 -633.3930053710938 75.771728515625 C -633.4013671875 75.81343078613281 -633.4110717773438 75.85514831542969 -633.4220581054688 75.896240234375 C -634.5791625976562 80.22528839111328 -636.8729858398438 84.19573974609375 -640.0556640625 87.37837219238281 C -643.2382202148438 90.5609130859375 -647.208740234375 92.85472106933594 -651.537841796875 94.01183319091797 C -652.604248046875 94.29690551757812 -653.7003784179688 93.66378784179688 -653.986083984375 92.5972900390625 L -656.61181640625 82.7977294921875 C -656.7492065429688 82.28516387939453 -656.6771850585938 81.73902130126953 -656.4117431640625 81.27954864501953 C -656.146240234375 80.82008361816406 -655.7090454101562 80.48493957519531 -655.1964111328125 80.34792327880859 C -653.259521484375 79.83023834228516 -651.482177734375 78.80305480957031 -650.0564575195312 77.37740325927734 C -648.630859375 75.95184326171875 -647.6036987304688 74.17448425292969 -647.0859375 72.23751068115234 C -646.9488525390625 71.72486877441406 -646.6137084960938 71.28770446777344 -646.1542358398438 71.02225494384766 C -645.8474731445312 70.84500122070312 -645.501953125 70.75399780273438 -645.1536865234375 70.75399780273438 Z" stroke="none" fill="#002764"/>
        </g>
      </g>
      <g id="Path_1488" data-name="Path 1488" transform="translate(-208.15)" fill="#fff" stroke-linecap="round" stroke-linejoin="round">
        <path d="M -768.1482543945312 -264.8497314453125 L -769.11376953125 -265.1078186035156 C -770.163330078125 -265.3883972167969 -771.2495727539062 -265.5306396484375 -772.3423461914062 -265.5306396484375 C -773.4349975585938 -265.5306396484375 -774.5213012695312 -265.3883972167969 -775.5711059570312 -265.1078186035156 L -776.5365600585938 -264.8497924804688 L -776.7952270507812 -265.8150939941406 L -779.4209594726562 -275.6146545410156 L -779.679931640625 -276.5812072753906 L -778.7131958007812 -276.8395690917969 C -776.641357421875 -277.3932495117188 -774.4979248046875 -277.6740112304688 -772.3423461914062 -277.6740112304688 C -770.1864624023438 -277.6740112304688 -768.0430908203125 -277.3932495117188 -765.9716796875 -276.8395385742188 L -765.0050659179688 -276.5811767578125 L -765.2639770507812 -275.6146850585938 L -767.8895874023438 -265.8151245117188 L -768.1482543945312 -264.8497314453125 Z" stroke="none"/>
        <path d="M -772.3423461914062 -276.6740112304688 C -774.45654296875 -276.6740112304688 -776.5051879882812 -276.3945617675781 -778.4550170898438 -275.8734741210938 L -775.8292846679688 -266.0739135742188 C -774.7169799804688 -266.3711853027344 -773.54833984375 -266.5306396484375 -772.3423461914062 -266.5306396484375 C -771.1363525390625 -266.5306396484375 -769.9678344726562 -266.3712463378906 -768.8555297851562 -266.0739135742188 L -766.2299194335938 -275.8734741210938 C -768.1796264648438 -276.3946533203125 -770.228271484375 -276.6740112304688 -772.3423461914062 -276.6740112304688 M -772.3423461914062 -278.6740112304688 C -770.0993041992188 -278.6740112304688 -767.8690185546875 -278.3818359375 -765.7134399414062 -277.8056335449219 C -765.2008056640625 -277.6686096191406 -764.7636108398438 -277.3334655761719 -764.4981689453125 -276.8739929199219 C -764.2327270507812 -276.41455078125 -764.1607055664062 -275.868408203125 -764.2980346679688 -275.3558654785156 L -766.9236450195312 -265.5563049316406 C -767.20947265625 -264.4898071289062 -768.3052368164062 -263.8565979003906 -769.3720092773438 -264.1417541503906 C -770.3373413085938 -264.3998107910156 -771.3367309570312 -264.5306396484375 -772.3423461914062 -264.5306396484375 C -773.3478393554688 -264.5306396484375 -774.3472900390625 -264.3997802734375 -775.3129272460938 -264.1417236328125 C -776.37939453125 -263.8567199707031 -777.4754028320312 -264.4898071289062 -777.7611083984375 -265.5562744140625 L -780.3868408203125 -275.3558349609375 C -780.5242309570312 -275.868408203125 -780.4522094726562 -276.41455078125 -780.186767578125 -276.8740539550781 C -779.9212646484375 -277.3335266113281 -779.4840698242188 -277.6686401367188 -778.9713745117188 -277.8056640625 C -776.8153686523438 -278.3818664550781 -774.5850219726562 -278.6740112304688 -772.3423461914062 -278.6740112304688 Z" stroke="none" fill="#002764"/>
      </g>
      <g id="Path_1489" data-name="Path 1489" transform="translate(-435.631 -208.152)" fill="#fff" stroke-linecap="round" stroke-linejoin="round">
        <path d="M -521.3417358398438 -37.5711669921875 L -522.3082275390625 -37.83010482788086 L -530.9981079101562 -40.15824508666992 L -532.1078491210938 -40.45561599731445 L -533.0731201171875 -40.71427536010742 L -532.8151245117188 -41.67970657348633 C -532.5345458984375 -42.7296257019043 -532.3922729492188 -43.81594467163086 -532.3922729492188 -44.90851593017578 C -532.3922729492188 -46.00130462646484 -532.5344848632812 -47.08751678466797 -532.8150024414062 -48.13696670532227 L -533.0731201171875 -49.10245513916016 L -532.1077880859375 -49.36112594604492 L -522.3082885742188 -51.9869270324707 L -521.3417358398438 -52.24590682983398 L -521.0833740234375 -51.27922439575195 C -520.5296630859375 -49.20771408081055 -520.2489013671875 -47.06429672241211 -520.2489013671875 -44.90851593017578 C -520.2489013671875 -42.75264739990234 -520.5296630859375 -40.60922622680664 -521.0833740234375 -38.53779602050781 L -521.3417358398438 -37.5711669921875 Z" stroke="none"/>
        <path d="M -522.0494384765625 -51.02099609375 L -531.8489379882812 -48.39519500732422 C -531.5516357421875 -47.28296661376953 -531.3922729492188 -46.11443710327148 -531.3922729492188 -44.90851593017578 C -531.3922729492188 -43.7025260925293 -531.5517578125 -42.53383636474609 -531.8489990234375 -41.42153549194336 L -522.0494384765625 -38.79603576660156 C -521.5282592773438 -40.74578475952148 -521.2489013671875 -42.79442596435547 -521.2489013671875 -44.90851593017578 C -521.2489013671875 -47.02260589599609 -521.5282592773438 -49.07117462158203 -522.0494384765625 -51.02099609375 M -522.0494995117188 -53.02099990844727 C -521.701171875 -53.02099990844727 -521.3557739257812 -52.93001556396484 -521.0489501953125 -52.75274658203125 C -520.5894165039062 -52.48728561401367 -520.2542724609375 -52.05010604858398 -520.1172485351562 -51.53745651245117 C -519.5410766601562 -49.38175582885742 -519.2489013671875 -47.15146636962891 -519.2489013671875 -44.90851593017578 C -519.2489013671875 -42.66549682617188 -519.5410766601562 -40.43518447875977 -520.1173095703125 -38.27955627441406 C -520.2543334960938 -37.76692581176758 -520.5894165039062 -37.32976531982422 -521.0488891601562 -37.06430435180664 C -521.5083618164062 -36.79884719848633 -522.0543823242188 -36.72684478759766 -522.5670166015625 -36.86416625976562 L -532.36669921875 -39.48969650268555 C -533.43310546875 -39.77545547485352 -534.0662231445312 -40.87127685546875 -533.7811889648438 -41.9378776550293 C -533.5231323242188 -42.90361404418945 -533.3922729492188 -43.9030876159668 -533.3922729492188 -44.90851593017578 C -533.3922729492188 -45.91415405273438 -533.5230712890625 -46.91347503662109 -533.7811279296875 -47.87872695922852 C -534.0662231445312 -48.94537734985352 -533.4330444335938 -50.04128646850586 -532.3665771484375 -50.32704544067383 L -522.5670776367188 -52.95284652709961 C -522.3967895507812 -52.99847412109375 -522.2227783203125 -53.02099990844727 -522.0494995117188 -53.02099990844727 Z" stroke="none" fill="#002764"/>
      </g>
      <g id="Path_1490" data-name="Path 1490" transform="translate(0 -208.153)" fill="#fff" stroke-linecap="round" stroke-linejoin="round">
        <path d="M -1004.013122558594 -37.56996917724609 L -1004.271484375 -38.53665924072266 C -1004.825256347656 -40.60839080810547 -1005.106018066406 -42.75188064575195 -1005.106018066406 -44.90758895874023 C -1005.106018066406 -47.06341171264648 -1004.825256347656 -49.20680999755859 -1004.271545410156 -51.27824020385742 L -1004.01318359375 -52.24491119384766 L -1003.046630859375 -51.98591995239258 L -1000.722534179688 -51.36315155029297 L -993.2471313476562 -49.36003875732422 L -992.2817993164062 -49.10137176513672 L -992.5399169921875 -48.13587188720703 C -992.8204345703125 -47.08650970458984 -992.962646484375 -46.00035858154297 -992.962646484375 -44.90758895874023 C -992.962646484375 -43.81486892700195 -992.8203735351562 -42.72858047485352 -992.5398559570312 -41.67890167236328 L -992.2817993164062 -40.71340942382812 L -993.2470703125 -40.45475006103516 L -1003.046569824219 -37.82894897460938 L -1004.013122558594 -37.56996917724609 Z" stroke="none"/>
        <path d="M -1003.305480957031 -51.02000045776367 C -1003.82666015625 -49.07025146484375 -1004.106018066406 -47.02169036865234 -1004.106018066406 -44.90758895874023 C -1004.106018066406 -42.79341888427734 -1003.826599121094 -40.74478912353516 -1003.305419921875 -38.79487991333008 L -993.5059204101562 -41.42068099975586 C -993.80322265625 -42.53298950195312 -993.962646484375 -43.70159912109375 -993.962646484375 -44.90758895874023 C -993.962646484375 -46.11343002319336 -993.8032836914062 -47.2819709777832 -993.5059814453125 -48.39411926269531 L -1003.305480957031 -51.02000045776367 M -1003.305419921875 -53.02000427246094 C -1003.132080078125 -53.02000427246094 -1002.958129882812 -52.99748611450195 -1002.787841796875 -52.95185089111328 L -992.9883422851562 -50.32596969604492 C -991.9218139648438 -50.04019165039062 -991.2886962890625 -48.94427108764648 -991.5737915039062 -47.87762069702148 C -991.8318481445312 -46.91246032714844 -991.962646484375 -45.91320037841797 -991.962646484375 -44.90758895874023 C -991.962646484375 -43.90201950073242 -991.831787109375 -42.9025993347168 -991.57373046875 -41.93711090087891 C -991.2886352539062 -40.87047958374023 -991.9218139648438 -39.77458953857422 -992.98828125 -39.48883056640625 L -1002.787780761719 -36.86302947998047 C -1003.300354003906 -36.72569274902344 -1003.846496582031 -36.79767990112305 -1004.305969238281 -37.06314086914062 C -1004.765441894531 -37.3286018371582 -1005.1005859375 -37.76578903198242 -1005.237609863281 -38.27843856811523 C -1005.813842773438 -40.43437194824219 -1006.106018066406 -42.66474151611328 -1006.106018066406 -44.90758895874023 C -1006.106018066406 -47.15056991577148 -1005.813842773438 -49.38085174560547 -1005.237609863281 -51.53647994995117 C -1005.1005859375 -52.04912948608398 -1004.765441894531 -52.48630142211914 -1004.305969238281 -52.75175857543945 C -1003.999206542969 -52.92900848388672 -1003.653686523438 -53.02000427246094 -1003.305419921875 -53.02000427246094 Z" stroke="none" fill="#002764"/>
      </g>
      <g id="Path_1491" data-name="Path 1491" transform="translate(-208.151 -435.631)" fill="#fff" stroke-linecap="round" stroke-linejoin="round">
        <path d="M -772.3413696289062 207.1830902099609 C -774.4968872070312 207.1830902099609 -776.6403198242188 206.9023590087891 -778.712158203125 206.3486785888672 L -779.6788940429688 206.0903167724609 L -779.419921875 205.1237640380859 L -776.794189453125 195.3241882324219 L -776.5355224609375 194.3588562011719 L -775.570068359375 194.6168975830078 C -774.5203247070312 194.8974609375 -773.4340209960938 195.0397186279297 -772.3413696289062 195.0397186279297 C -771.248779296875 195.0397186279297 -770.1624755859375 194.8974609375 -769.1127319335938 194.6168975830078 L -768.1472778320312 194.3588562011719 L -767.8886108398438 195.3241882324219 L -765.2628784179688 205.1237640380859 L -765.00390625 206.0903167724609 L -765.9706420898438 206.3486785888672 C -768.04248046875 206.9023590087891 -770.1859130859375 207.1830902099609 -772.3413696289062 207.1830902099609 Z" stroke="none"/>
        <path d="M -775.8282470703125 195.5829925537109 L -778.4539794921875 205.382568359375 C -776.504150390625 205.9036560058594 -774.45556640625 206.1830902099609 -772.3413696289062 206.1830902099609 C -770.2272338867188 206.1830902099609 -768.1786499023438 205.9036560058594 -766.2288208007812 205.382568359375 L -768.8545532226562 195.5829925537109 C -769.966796875 195.8802642822266 -771.1353759765625 196.0397186279297 -772.3413696289062 196.0397186279297 C -773.54736328125 196.0397186279297 -774.7160034179688 195.8802642822266 -775.8282470703125 195.5829925537109 M -775.8295288085938 193.5824890136719 C -775.6585083007812 193.5824890136719 -775.48486328125 193.6045684814453 -775.3118286132812 193.6508178710938 C -774.3463134765625 193.9088745117188 -773.3468627929688 194.0397186279297 -772.3413696289062 194.0397186279297 C -771.3358764648438 194.0397186279297 -770.3364868164062 193.9088745117188 -769.3709716796875 193.6508178710938 C -768.304443359375 193.3657989501953 -767.20849609375 193.9988708496094 -766.9227294921875 195.0653686523438 L -764.2969970703125 204.8649444580078 C -764.1596069335938 205.3775177001953 -764.2316284179688 205.9236755371094 -764.4970703125 206.3831481933594 C -764.7625732421875 206.8426208496094 -765.1997680664062 207.1777496337891 -765.7124633789062 207.3147583007812 C -767.8684692382812 207.8909454345703 -770.0987548828125 208.1830902099609 -772.3413696289062 208.1830902099609 C -774.5840454101562 208.1830902099609 -776.8143310546875 207.8909454345703 -778.9703369140625 207.3147583007812 C -779.4830322265625 207.1777496337891 -779.9202270507812 206.8426208496094 -780.1857299804688 206.3831481933594 C -780.451171875 205.9236755371094 -780.523193359375 205.3775177001953 -780.3858032226562 204.8649444580078 L -777.7600708007812 195.0653686523438 C -777.5206909179688 194.1719207763672 -776.7125244140625 193.5824890136719 -775.8295288085938 193.5824890136719 Z" stroke="none" fill="#002764"/>
      </g>
    </g>
  </g>
</svg>
